Australia,Capital Territory
Australia,New South Wales
Australia,Northern Territory
Australia,Other
Australia,Queensland
Australia,South Australia
Australia,Tasmania
Australia,Victoria
Australia,Western Australia
Canada,Alberta
Canada,British Columbia
Canada,Manitoba
Canada,New Brunswick
Canada,Newfoundland and Labrador
Canada,Northwest Territories
Canada,Nova Scotia
Canada,Nunavut
Canada,Ontario
Canada,Prince Edward Island
Canada,Quebec
Canada,Saskatchewan
Canada,Yukon
Mexico,Aguascalientes
Mexico,Baja California
Mexico,Baja California Sur
Mexico,Campeche
Mexico,Chiapas
Mexico,Chihuahua
Mexico,Coaluila
Mexico,Colima
Mexico,Durango
Mexico,Guanajuato
Mexico,Guerro
Mexico,Hidalgo
Mexico,Jalisco
Mexico,Mexico
Mexico,Mexico City
Mexico,Michoacan
Mexico,Morelos
Mexico,Nayarit
Mexico,Nuevo Leon
Mexico,Oaxaca
Mexico,Other
Mexico,Puebla
Mexico,Queretaro
Mexico,Quintana Roo
Mexico,San Luis Potosi
Mexico,Sinaloa
Mexico,Sonora
Mexico,Tabasco
Mexico,Tamaulipas
Mexico,Tlaxcala
Mexico,Veracruz
Mexico,Yucatan
Mexico,Zacatecas
Pakistan,Azad Kashmir
Pakistan,Balochistan
Pakistan,Capital Territory
Pakistan,Gilgit-Baltistan
Pakistan,Khyber Pakhtunkhwa
Pakistan,Other
Pakistan,Punjab
Pakistan,Sindh
South Africa,Eastern Cape
South Africa,Free State
South Africa,Gauteng
South Africa,KwaZulu-Natal
South Africa,Limpopo
South Africa,Mpumalanga
South Africa,North West
South Africa,Northern Cape
South Africa,Other
South Africa,Western Cape
United States,Alabama
United States,Alaska
United States,Arizona
United States,Arkansas
United States,California
United States,Colorado
United States,Connecticut
United States,Delaware
United States,District of Columbia
United States,Florida
United States,Georgia
United States,Hawaii
United States,Idaho
United States,Illinois
United States,Indiana
United States,Iowa
United States,Kansas
United States,Kentucky
United States,Louisiana
United States,Maine
United States,Maryland
United States,Massachusetts
United States,Michigan
United States,Minnesota
United States,Mississippi
United States,Missouri
United States,Montana
United States,Nebraska
United States,Nevada
United States,New Hampshire
United States,New Jersey
United States,New Mexico
United States,New York
United States,North Carolina
United States,North Dakota
United States,Ohio
United States,Oklahoma
United States,Oregon
United States,Pennsylvania
United States,Rhode Island
United States,South Carolina
United States,South Dakota
United States,Tennessee
United States,Texas
United States,Utah
United States,Vermont
United States,Virginia
United States,Washington
United States,West Virginia
United States,Wisconsin
United States,Wyoming
